{
    "name": "Tropical Beach Bamboo",
    "color": "#6FF1BE",
    "rarity": 1,
    "derivative": "JUNGLE",
    "vanillaDerivative": "BEACH",
    "generators": [
        {
            "min": -5,
            "max": 1,
            "generator": "plain"
        }
    ],
    "wall": {
        "palette": [
            {
                "block": "minecraft:smooth_sandstone"
            }
        ]
    },
    "layers": [
        {
            "minHeight": 3,
            "maxHeight": 6,
            "palette": [
                {
                    "block": "minecraft:sand"
                }
            ]
        },
        {
            "minHeight": 1,
            "maxHeight": 3,
            "palette": [
                {
                    "block": "minecraft:dirt"
                }
            ]
        }
    ],
    "decorators": [
        {
            "chance": 0.03,
            "variance": {
                "style": "STATIC"
            },
            "zoom": 0.3,
            "palette": [
                {
                    "data": {
                        "face": "floor",
                        "powered": false,
                        "facing": "east"
                    },
                    "block": "minecraft:jungle_button"
                },
                {
                    "block": "minecraft:air"
                },
                {
                    "data": {
                        "face": "floor",
                        "powered": false,
                        "facing": "south"
                    },
                    "block": "minecraft:jungle_button"
                }
            ],
            "style": {
                "style": "STATIC"
            }
        },
        {
            "stackMin": 1,
            "stackMax": 7,
            "chance": 0.09,
            "variance": {
                "style": "STATIC"
            },
            "palette": [
                {
                    "data": {
                        "stage": 0,
                        "age": 0,
                        "leaves": "none"
                    },
                    "block": "minecraft:bamboo"
                },
                {
                    "data": {
                        "stage": 1,
                        "age": 0,
                        "leaves": "none"
                    },
                    "block": "minecraft:bamboo"
                },
                {
                    "data": {
                        "stage": 0,
                        "age": 1,
                        "leaves": "none"
                    },
                    "block": "minecraft:bamboo"
                },
                {
                    "data": {
                        "stage": 1,
                        "age": 1,
                        "leaves": "none"
                    },
                    "block": "minecraft:bamboo"
                },
                {
                    "data": {
                        "stage": 0,
                        "age": 0,
                        "leaves": "small"
                    },
                    "block": "minecraft:bamboo"
                },
                {
                    "data": {
                        "stage": 1,
                        "age": 0,
                        "leaves": "small"
                    },
                    "block": "minecraft:bamboo"
                },
                {
                    "data": {
                        "stage": 0,
                        "age": 1,
                        "leaves": "small"
                    },
                    "block": "minecraft:bamboo"
                },
                {
                    "data": {
                        "stage": 1,
                        "age": 1,
                        "leaves": "small"
                    },
                    "block": "minecraft:bamboo"
                },
                {
                    "data": {
                        "stage": 0,
                        "age": 0,
                        "leaves": "large"
                    },
                    "block": "minecraft:bamboo"
                },
                {
                    "data": {
                        "stage": 1,
                        "age": 0,
                        "leaves": "large"
                    },
                    "block": "minecraft:bamboo"
                },
                {
                    "data": {
                        "stage": 0,
                        "age": 1,
                        "leaves": "large"
                    },
                    "block": "minecraft:bamboo"
                },
                {
                    "data": {
                        "stage": 1,
                        "age": 1,
                        "leaves": "large"
                    },
                    "block": "minecraft:bamboo"
                }
            ],
            "style": {
                "style": "STATIC"
            }
        }
    ],
    "effects": [
        {
            "particleAltX": 0.301,
            "particleAltY": -0.33885,
            "particleAltZ": 0.301,
            "chance": 1,
            "particleEffect": "TOTEM",
            "particleOffset": 12,
            "interval": 550,
            "particleCount": 0
        }
    ]
}