{
    "name": "Tropical Plains",
    "color": "#1DA571",
    "rarity": 1,
    "derivative": "JUNGLE",
    "vanillaDerivative": "JUNGLE",
    "customDerivitives": [
        {
            "id": "tropical_plains",
            "foliageColor": "#40C42B",
            "grassColor": "#41A726",
            "category": "jungle",
            "waterColor": "#3AB2A2",
            "waterFogColor": "#3AB2A2"
        }
    ],
    "children": [
        "tropical/plains-hills"
    ],
    "generators": [
        {
            "generator": "smooth-dunes",
            "max": 20,
            "min": -10
        }
    ],
    "layers": [
        {
            "palette": [
                {
                    "block": "minecraft:grass_block"
                }
            ]
        },
        {
            "minHeight": 2,
            "maxHeight": 2,
            "palette": [
                {
                    "block": "minecraft:dirt"
                }
            ]
        },
        {
            "style": {
                "style": "STATIC"
            },
            "minHeight": 1,
            "maxHeight": 1,
            "palette": [
                {
                    "block": "minecraft:dirt"
                },
                {
                    "block": "minecraft:stone"
                }
            ]
        }
    ],
    "jigsawStructures": [
        {
            "rarity": 1700,
            "structure": "pillager_outpost"
        },
        {
            "rarity": 1000,
            "structure": "village-tundra"
        },
        {
            "rarity": 1200,
            "structure": "jungle-pyramid"
        }
    ],
    "objects": [
        {
            "chance": 0.4,
            "density": 2,
            "rotation": {
                "yAxis": {
                    "min": 0,
                    "max": 0,
                    "interval": 90,
                    "enabled": true
                },
                "enabled": true
            },
            "place": [
                "trees/jungle/cocogeneric2",
                "trees/jungle/cocogeneric3",
                "trees/jungle/cocogeneric4",
                "trees/jungle/cocogeneric5"
            ],
            "translate": {
                "x": 0,
                "y": -2,
                "z": 0
            }
        },
        {
            "mode": "PAINT",
            "place": [
                "clutter/sbush1",
                "clutter/sbush2",
                "clutter/sbush3"
            ],
            "chance": 1,
            "density": 5
        },
        {
            "place": [
                "trees/jungle/lgeneric1",
                "trees/jungle/lgeneric2",
                "trees/jungle/lgeneric3",
                "trees/jungle/lgeneric4",
                "trees/jungle/lgeneric5",
                "trees/jungle/lgeneric6",
                "trees/jungle/lgeneric7",
                "trees/jungle/lgeneric8",
                "trees/jungle/lgeneric9"
            ],
            "edit": [
                {
                    "find": [
                        {
                            "block": "minecraft:oak_log"
                        },
                        {
                            "block": "minecraft:oak_wood"
                        }
                    ],
                    "replace": {
                        "palette": [
                            {
                                "block": "minecraft:jungle_wood"
                            }
                        ]
                    }
                }
            ],
            "chance": 1,
            "rotation": {
                "enabled": true,
                "yAxis": {
                    "enabled": true,
                    "interval": 90,
                    "min": -360,
                    "max": 360
                }
            },
            "translate": {
                "y": -2
            }
        },
        {
            "chance": 0.008,
            "mode": "PAINT",
            "place": [
                "clutter/melons1",
                "clutter/melons2",
                "clutter/melons3",
                "clutter/melons4",
                "clutter/melons5",
                "clutter/melons6"
            ],
            "rotation": {
                "enabled": true,
                "yAxis": {
                    "enabled": true,
                    "max": 360,
                    "min": 0,
                    "interval": 90
                }
            },
            "translate": {
                "y": 1
            }
        }
    ],
    "decorators": [
        {
            "chance": 0.7,
            "palette": [
                {
                    "weight": 2,
                    "block": "minecraft:grass"
                },
                {
                    "weight": 1,
                    "block": "minecraft:tall_grass"
                }
            ]
        },
        {
            "chance": 0.06,
            "variance": {
                "style": "STATIC"
            },
            "palette": [
                {
                    "block": "minecraft:dandelion"
                },
                {
                    "block": "minecraft:poppy"
                },
                {
                    "block": "minecraft:blue_orchid"
                },
                {
                    "block": "minecraft:allium"
                },
                {
                    "block": "minecraft:azure_bluet"
                },
                {
                    "block": "minecraft:red_tulip"
                },
                {
                    "block": "minecraft:orange_tulip"
                },
                {
                    "block": "minecraft:white_tulip"
                },
                {
                    "block": "minecraft:pink_tulip"
                },
                {
                    "block": "minecraft:oxeye_daisy"
                },
                {
                    "block": "minecraft:cornflower"
                },
                {
                    "block": "minecraft:lily_of_the_valley"
                }
            ]
        }
    ],
    "childStyle": {
        "style": "SIMPLEX",
        "zoom": 0.5,
        "exponent": 2
    }
}