{
    "name": "Hot Desert Dunes",
    "color": "#B9B03D",
    "rarity": 1,
    "derivative": "DESERT",
    "vanillaDerivative": "DESERT",
    "generators": [
        {
            "generator": "smooth-dunes",
            "max": 41,
            "min": 28
        }
    ],
    "layers": [
        {
            "minHeight": 3,
            "maxHeight": 10,
            "slopeCondition": {
                "minimumSlope": 4.5,
                "maximumSlope": 20
            },
            "palette": [
                {
                    "block": "minecraft:terracotta"
                }
            ]
        },
        {
            "minHeight": 5,
            "maxHeight": 5,
            "zoom": 0.7,
            "palette": [
                {
                    "weight": 1,
                    "block": "minecraft:sand"
                }
            ]
        }
    ],
    "jigsawStructures": [
        {
            "rarity": 1700,
            "structure": "pillager_outpost"
        },
        {
            "rarity": 1500,
            "structure": "village-hot"
        },
        {
            "rarity": 1900,
            "structure": "desert-pyramid"
        }
    ],
    "objects": [
        {
            "chance": 0.001,
            "density": 3,
            "place": [
                "clutter/desertpost1",
                "clutter/desertpost2",
                "clutter/desertpost3"
            ]
        },
        {
            "mode": "PAINT",
            "place": [
                "structures/ruins-desert-1",
                "structures/ruins-desert-2"
            ],
            "chance": 0.005,
            "rotation": {
                "enabled": true,
                "yAxis": {
                    "enabled": true,
                    "interval": 90,
                    "min": -360,
                    "max": 360
                }
            }
        },
        {
            "chance": 0.0018,
            "mode": "PAINT",
            "rotation": {
                "yAxis": {
                    "min": 0,
                    "max": 0,
                    "interval": 90,
                    "enabled": true
                },
                "enabled": true
            },
            "place": [
                "clutter/sphinx1",
                "clutter/brksphinx1"
            ],
            "translate": {
                "x": 0,
                "y": -2,
                "z": 0
            }
        },
        {
            "chance": 0.0014,
            "mode": "PAINT",
            "rotation": {
                "yAxis": {
                    "min": 0,
                    "max": 0,
                    "interval": 90,
                    "enabled": true
                },
                "enabled": true
            },
            "place": [
                "jigsaw/pyramid/pyramid-extreme",
                "jigsaw/pyramid/pyramid",
                "jigsaw/pyramid/pyramid45"
            ],
            "translate": {
                "x": 0,
                "y": -3,
                "z": 0
            }
        }
    ],
    "decorators": [
        {
            "verticalZoom": 5,
            "chance": 0.004,
            "variance": {
                "style": "STATIC"
            },
            "stackMax": 5,
            "style": {
                "style": "STATIC"
            },
            "palette": [
                {
                    "block": "minecraft:cactus"
                }
            ],
            "heightVariance": {
                "style": "NOWHERE"
            },
            "stackMin": 1
        },
        {
            "chance": 0.005,
            "palette": [
                {
                    "block": "minecraft:dead_bush"
                }
            ]
        }
    ]
}