{
    "name": "Temperate Birch Denmyre",
    "color": "#B0FB91",
    "rarity": 1,
    "derivative": "FOREST",
    "vanillaDerivative": "BIRCH_FOREST",
    "generators": [
        {
            "min": 4,
            "max": 7,
            "generator": "plain"
        }
    ],
    "wall": {
        "style": {
            "style": "STATIC"
        },
        "palette": [
            {
                "block": "minecraft:stone"
            },
            {
                "block": "minecraft:andesite"
            },
            {
                "block": "minecraft:stone"
            }
        ]
    },
    "layers": [
        {
            "style": {
                "style": "FLAT"
            },
            "palette": [
                {
                    "block": "minecraft:grass_block"
                }
            ]
        },
        {
            "palette": [
                {
                    "block": "minecraft:dirt"
                }
            ]
        },
        {
            "minHeight": 1,
            "maxHeight": 3,
            "palette": [
                {
                    "block": "minecraft:coarse_dirt"
                }
            ]
        },
        {
            "minHeight": 6,
            "maxHeight": 18,
            "style": {
                "style": "STATIC"
            },
            "palette": [
                {
                    "block": "minecraft:stone"
                },
                {
                    "block": "minecraft:andesite"
                },
                {
                    "block": "minecraft:stone"
                }
            ]
        }
    ],
    "jigsawStructures": [
        {
            "rarity": 1700,
            "structure": "pillager_outpost"
        },
        {
            "rarity": 1500,
            "structure": "village-temperate"
        }
    ],
    "objects": [
        {
            "mode": "PAINT",
            "chance": 0.0025,
            "rotation": {
                "yAxis": {
                    "min": 0,
                    "max": 0,
                    "interval": 90,
                    "enabled": true
                },
                "enabled": true
            },
            "place": [
                "clutter/bincluster1"
            ]
        },
        {
            "mode": "PAINT",
            "chance": 0.00375,
            "rotation": {
                "yAxis": {
                    "min": 0,
                    "max": 0,
                    "interval": 90,
                    "enabled": true
                },
                "enabled": true
            },
            "place": [
                "clutter/camp1"
            ]
        },
        {
            "chance": 0.5,
            "density": 2,
            "edit": [
                {
                    "find": [
                        {
                            "block": "minecraft:acacia_planks"
                        }
                    ],
                    "replace": {
                        "palette": [
                            {
                                "block": "minecraft:stripped_birch_wood"
                            }
                        ]
                    }
                },
                {
                    "find": [
                        {
                            "block": "minecraft:acacia_leaves"
                        }
                    ],
                    "replace": {
                        "palette": [
                            {
                                "block": "minecraft:birch_leaves"
                            }
                        ]
                    }
                },
                {
                    "find": [
                        {
                            "block": "minecraft:acacia_fence"
                        }
                    ],
                    "replace": {
                        "palette": [
                            {
                                "block": "minecraft:birch_fence"
                            }
                        ]
                    }
                },
                {
                    "find": [
                        {
                            "block": "minecraft:acacia_wood"
                        }
                    ],
                    "replace": {
                        "palette": [
                            {
                                "block": "minecraft:birch_wood"
                            }
                        ]
                    }
                }
            ],
            "rotation": {
                "yAxis": {
                    "min": 0,
                    "max": 0,
                    "interval": 90,
                    "enabled": true
                },
                "enabled": true
            },
            "place": [
                "trees/acacia/denmyre1",
                "trees/acacia/denmyre2",
                "trees/acacia/denmyre3",
                "trees/acacia/denmyre4",
                "trees/acacia/denmyre5",
                "trees/acacia/denmyre6",
                "trees/acacia/denmyre7"
            ],
            "translate": {
                "x": 0,
                "y": -1,
                "z": 0
            }
        },
        {
            "edit": [
                {
                    "find": [
                        {
                            "block": "minecraft:birch_leaves"
                        }
                    ],
                    "replace": {
                        "palette": [
                            {
                                "block": "minecraft:birch_leaves"
                            }
                        ]
                    }
                },
                {
                    "find": [
                        {
                            "block": "minecraft:spruce_leaves"
                        }
                    ],
                    "replace": {
                        "palette": [
                            {
                                "block": "minecraft:birch_leaves"
                            }
                        ]
                    }
                },
                {
                    "find": [
                        {
                            "block": "minecraft:spruce_wood"
                        }
                    ],
                    "replace": {
                        "palette": [
                            {
                                "block": "minecraft:birch_leaves"
                            }
                        ]
                    }
                }
            ],
            "chance": 0.3,
            "density": 2,
            "rotation": {
                "yAxis": {
                    "min": 0,
                    "max": 0,
                    "interval": 90,
                    "enabled": true
                },
                "enabled": true
            },
            "place": [
                "clutter/oakdenclutt1",
                "clutter/oakdenclutt2",
                "clutter/oakdenclutt3",
                "clutter/oakdenclutt4",
                "clutter/oakdenclutt5",
                "clutter/oakdenclutt6",
                "clutter/oakdenclutt7",
                "clutter/oakdenclutt8",
                "clutter/oakdenclutt9",
                "clutter/oakdenclutt10"
            ],
            "translate": {
                "x": 0,
                "y": -1,
                "z": 0
            }
        }
    ],
    "decorators": [
        {
            "chance": 0.01,
            "variance": {
                "style": "STATIC"
            },
            "zoom": 0.01,
            "palette": [
                {
                    "block": "minecraft:red_tulip"
                },
                {
                    "block": "minecraft:orange_tulip"
                },
                {
                    "block": "minecraft:white_tulip"
                },
                {
                    "block": "minecraft:pink_tulip"
                },
                {
                    "block": "minecraft:cornflower"
                }
            ],
            "style": {
                "style": "STATIC"
            }
        },
        {
            "chance": 0.35,
            "variance": {
                "style": "STATIC"
            },
            "palette": [
                {
                    "block": "minecraft:grass"
                }
            ],
            "style": {
                "style": "STATIC"
            }
        },
        {
            "chance": 0.003,
            "variance": {
                "style": "STATIC"
            },
            "palette": [
                {
                    "data": {
                        "face": "floor",
                        "powered": false,
                        "facing": "east"
                    },
                    "block": "minecraft:stone_button"
                },
                {
                    "data": {
                        "face": "floor",
                        "powered": false,
                        "facing": "south"
                    },
                    "block": "minecraft:stone_button"
                }
            ],
            "style": {
                "style": "STATIC"
            }
        },
        {
            "chance": 0.027,
            "variance": {
                "style": "STATIC"
            },
            "palette": [
                {
                    "block": "minecraft:tall_grass"
                }
            ],
            "style": {
                "style": "STATIC"
            }
        }
    ]
}