{
    "name": "Temperate Island",
    "color": "#7ADB51",
    "rarity": 3,
    "derivative": "PLAINS",
    "vanillaDerivative": "PLAINS",
    "biomeScatter": [
        "FOREST",
        "PLAINS"
    ],
    "customDerivitives": [
        {
            "id": "island",
            "foliageColor": "#69DF51",
            "waterColor": "#48BFBC",
            "grassColor": "#BEDF51",
            "category": "forest"
        }
    ],
    "children": [
        "temperate/wilds"
    ],
    "generators": [
        {
            "min": 28,
            "max": 42,
            "generator": "plain"
        }
    ],
    "biomeStyle": {
        "style": "SIMPLEX"
    },
    "wall": {
        "style": {
            "style": "STATIC"
        },
        "palette": [
            {
                "block": "minecraft:stone"
            },
            {
                "block": "minecraft:andesite"
            },
            {
                "block": "minecraft:stone"
            }
        ]
    },
    "layers": [
        {
            "palette": [
                {
                    "block": "minecraft:grass_block"
                }
            ]
        },
        {
            "palette": [
                {
                    "block": "minecraft:dirt"
                }
            ]
        },
        {
            "minHeight": 1,
            "maxHeight": 3,
            "palette": [
                {
                    "block": "minecraft:dirt"
                },
                {
                    "block": "minecraft:coarse_dirt"
                }
            ]
        },
        {
            "minHeight": 6,
            "maxHeight": 18,
            "style": {
                "style": "STATIC"
            },
            "palette": [
                {
                    "block": "minecraft:stone"
                },
                {
                    "block": "minecraft:andesite"
                },
                {
                    "block": "minecraft:stone"
                }
            ]
        }
    ],
    "objects": [
        {
            "chance": 0.01,
            "rotation": {
                "yAxis": {
                    "min": 0,
                    "max": 0,
                    "interval": 90,
                    "enabled": true
                },
                "enabled": true
            },
            "place": [
                "trees/oak/hoakgeneric3",
                "trees/oak/hoakgeneric4",
                "trees/oak/hoakgeneric5",
                "trees/oak/hoakgeneric6",
                "trees/oak/hoakgeneric7",
                "trees/oak/hoakgeneric8",
                "trees/oak/hoakgeneric9",
                "trees/oak/hoakgeneric1",
                "trees/oak/shoakgeneric3",
                "trees/oak/shoakgeneric4",
                "trees/oak/shoakgeneric5",
                "trees/oak/shoakgeneric6",
                "trees/oak/shoakgeneric7",
                "trees/oak/shoakgeneric8",
                "trees/oak/shoakgeneric9",
                "trees/oak/shoakgeneric1",
                "trees/oak/shoakgeneric2"
            ]
        },
        {
            "chance": 0.005,
            "rotation": {
                "yAxis": {
                    "min": 0,
                    "max": 0,
                    "interval": 90,
                    "enabled": true
                },
                "enabled": true
            },
            "place": [
                "clutter/obelisk1",
                "clutter/obelisk2",
                "clutter/obelisk3",
                "clutter/obelisk4",
                "clutter/obelisk5",
                "clutter/obelisk6",
                "clutter/obelisk7"
            ]
        }
    ],
    "decorators": [
        {
            "chance": 0.19,
            "variance": {
                "style": "STATIC"
            },
            "zoom": 0.3,
            "palette": [
                {
                    "block": "minecraft:grass"
                }
            ],
            "style": {
                "style": "STATIC"
            }
        },
        {
            "chance": 0.02,
            "variance": {
                "style": "STATIC"
            },
            "zoom": 0.3,
            "palette": [
                {
                    "data": {
                        "age": 7
                    },
                    "block": "minecraft:wheat"
                }
            ],
            "style": {
                "style": "NOWHERE",
                "zoom": 0.28
            }
        }
    ]
}