{
    "name": "Lush Plains Red",
    "color": "#6DCF43",
    "rarity": 3,
    "derivative": "FLOWER_FOREST",
    "vanillaDerivative": "FLOWER_FOREST",
    "generators": [
        {
            "min": 4,
            "max": 7,
            "generator": "plain"
        }
    ],
    "biomeStyle": {
        "style": "SIMPLEX"
    },
    "wall": {
        "palette": [
            {
                "block": "minecraft:stone"
            },
            {
                "block": "minecraft:andesite"
            }
        ]
    },
    "layers": [
        {
            "palette": [
                {
                    "block": "minecraft:grass_block"
                }
            ]
        },
        {
            "minHeight": 2,
            "maxHeight": 2,
            "palette": [
                {
                    "block": "minecraft:dirt"
                }
            ]
        },
        {
            "minHeight": 1,
            "maxHeight": 3,
            "palette": [
                {
                    "block": "minecraft:dirt"
                },
                {
                    "block": "minecraft:coarse_dirt"
                }
            ]
        },
        {
            "minHeight": 6,
            "maxHeight": 18,
            "style": {
                "style": "STATIC"
            },
            "palette": [
                {
                    "block": "minecraft:dirt"
                },
                {
                    "block": "minecraft:stone"
                }
            ]
        }
    ],
    "jigsawStructures": [
        {
            "rarity": 1700,
            "structure": "pillager_outpost"
        },
        {
            "rarity": 1500,
            "structure": "village-temperate"
        }
    ],
    "objects": [
        {
            "mode": "PAINT",
            "chance": 0.009,
            "rotation": {
                "yAxis": {
                    "min": 0,
                    "max": 360,
                    "interval": 90,
                    "enabled": true
                },
                "enabled": true
            },
            "place": [
                "clutter/camp1",
                "clutter/camp3",
                "clutter/camp4",
                "clutter/camp5",
                "clutter/camp2"
            ]
        },
        {
            "chance": 0.01,
            "rotation": {
                "yAxis": {
                    "min": 0,
                    "max": 360,
                    "interval": 90,
                    "enabled": true
                },
                "enabled": true
            },
            "place": [
                "trees/oak/hoakgeneric3",
                "trees/oak/hoakgeneric4",
                "trees/oak/hoakgeneric5",
                "trees/oak/hoakgeneric6",
                "trees/oak/hoakgeneric7",
                "trees/oak/hoakgeneric8",
                "trees/oak/hoakgeneric9",
                "trees/oak/hoakgeneric1",
                "trees/oak/shoakgeneric3",
                "trees/oak/shoakgeneric4",
                "trees/oak/shoakgeneric5",
                "trees/oak/shoakgeneric6",
                "trees/oak/shoakgeneric7",
                "trees/oak/shoakgeneric8",
                "trees/oak/shoakgeneric9",
                "trees/oak/shoakgeneric1",
                "trees/oak/shoakgeneric2",
                "trees/oak/generic1",
                "trees/oak/generic2",
                "trees/oak/generic3",
                "trees/oak/generic4",
                "trees/oak/generic5",
                "trees/oak/generic6"
            ]
        },
        {
            "chance": 0.0001,
            "mode": "PAINT",
            "rotation": {
                "yAxis": {
                    "min": 0,
                    "max": 360,
                    "interval": 90,
                    "enabled": true
                },
                "enabled": true
            },
            "place": [
                "structures/ruin1"
            ]
        },
        {
            "chance": 0.004,
            "rotation": {
                "yAxis": {
                    "min": 0,
                    "max": 360,
                    "interval": 90,
                    "enabled": true
                },
                "enabled": true
            },
            "place": [
                "clutter/obelisk1",
                "clutter/obelisk2",
                "clutter/obelisk3",
                "clutter/obelisk4",
                "clutter/obelisk5",
                "clutter/obelisk6",
                "clutter/obelisk7",
                "clutter/genericpeak1",
                "clutter/genericpeak2",
                "clutter/genericpeak3",
                "clutter/genericpeak5",
                "clutter/genericpeak6",
                "structures/landstone1",
                "structures/landstone2",
                "structures/landstone3",
                "structures/landstone4",
                "structures/landstone5",
                "clutter/statue-villager-plains"
            ]
        },
        {
            "chance": 0.004,
            "mode": "PAINT",
            "place": [
                "clutter/pumpkins1",
                "clutter/pumpkins2",
                "clutter/pumpkins3",
                "clutter/pumpkins4",
                "clutter/pumpkins5",
                "clutter/pumpkins6",
                "clutter/melons1",
                "clutter/melons2",
                "clutter/melons3",
                "clutter/melons4",
                "clutter/melons5",
                "clutter/melons6"
            ],
            "rotation": {
                "enabled": true,
                "yAxis": {
                    "enabled": true,
                    "max": 360,
                    "min": 0,
                    "interval": 90
                }
            },
            "translate": {
                "y": 1
            }
        }
    ],
    "decorators": [
        {
            "chance": 0.04,
            "style": {
                "style": "STATIC"
            },
            "palette": [
                {
                    "block": "minecraft:rose_bush",
                    "weight": 6
                },
                {
                    "block": "minecraft:poppy",
                    "weight": 8
                }
            ]
        },
        {
            "chance": 0.01,
            "palette": [
                {
                    "block": "minecraft:tall_grass"
                }
            ]
        },
        {
            "chance": 0.5,
            "palette": [
                {
                    "block": "minecraft:grass",
                    "weight": 15
                },
                {
                    "block": "minecraft:fern",
                    "weight": 1
                }
            ]
        },
        {
            "chance": 0.07,
            "palette": [
                {
                    "block": "minecraft:oak_leaves",
                    "data": {
                        "persistent": true
                    }
                }
            ]
        }
    ]
}