{
    "name": "Temperate Plateau",
    "color": "#3C9D11",
    "rarity": 4,
    "derivative": "DEEP_LUKEWARM_OCEAN",
    "vanillaDerivative": "FOREST",
    "biomeScatter": [
        "FOREST"
    ],
    "customDerivitives": [
        {
            "id": "plateau",
            "foliageColor": "#44A528",
            "waterColor": "#2883A5",
            "grassColor": "#21BF4C",
            "category": "forest"
        }
    ],
    "children": [
        "temperate/plateau-extended"
    ],
    "generators": [
        {
            "min": 25,
            "max": 37,
            "generator": "small-cliffs"
        }
    ],
    "biomeStyle": {
        "style": "SIMPLEX"
    },
    "wall": {
        "style": {
            "style": "STATIC"
        },
        "palette": [
            {
                "block": "minecraft:stone"
            },
            {
                "block": "minecraft:andesite"
            },
            {
                "block": "minecraft:stone"
            }
        ]
    },
    "layers": [
        {
            "style": {
                "style": "STATIC"
            },
            "palette": [
                {
                    "block": "minecraft:grass_block"
                }
            ]
        },
        {
            "palette": [
                {
                    "block": "minecraft:dirt"
                }
            ]
        },
        {
            "minHeight": 1,
            "maxHeight": 3,
            "palette": [
                {
                    "block": "minecraft:dirt"
                },
                {
                    "block": "minecraft:coarse_dirt"
                }
            ]
        },
        {
            "minHeight": 6,
            "maxHeight": 18,
            "style": {
                "style": "STATIC"
            },
            "palette": [
                {
                    "block": "minecraft:stone"
                },
                {
                    "block": "minecraft:andesite"
                },
                {
                    "block": "minecraft:stone"
                }
            ]
        }
    ],
    "jigsawStructures": [
        {
            "rarity": 1700,
            "structure": "pillager_outpost"
        },
        {
            "rarity": 1500,
            "structure": "village-temperate"
        }
    ],
    "objects": [
        {
            "name": "standard-surface-portals",
            "chance": 0.005,
            "place": [
                "structures/swordnp2",
                "structures/swordnp1",
                "structures/swordnpstr2",
                "structures/swordnpstr1",
                "structures/giantportal1",
                "structures/giantportal2",
                "structures/giantportal3",
                "structures/megaportal1",
                "structures/megaportal2"
            ],
            "edit": [
                {
                    "find": [
                        {
                            "block": "minecraft:gold_block"
                        }
                    ],
                    "replace": {
                        "palette": [
                            {
                                "block": "minecraft:air"
                            }
                        ]
                    },
                    "chance": 0.1
                },
                {
                    "find": [
                        {
                            "block": "minecraft:netherrack"
                        }
                    ],
                    "replace": {
                        "palette": [
                            {
                                "block": "minecraft:magma_block"
                            }
                        ]
                    },
                    "chance": 0.07
                },
                {
                    "find": [
                        {
                            "block": "minecraft:obsidian"
                        }
                    ],
                    "replace": {
                        "palette": [
                            {
                                "block": "minecraft:crying_obsidian"
                            }
                        ]
                    },
                    "chance": 0.15
                },
                {
                    "find": [
                        {
                            "block": "minecraft:lava"
                        }
                    ],
                    "replace": {
                        "palette": [
                            {
                                "block": "minecraft:magma_block"
                            }
                        ]
                    },
                    "chance": 0.2
                }
            ],
            "mode": "PAINT",
            "carvingSupport": "SURFACE_ONLY"
        },
        {
            "chance": 0.07,
            "rotation": {
                "yAxis": {
                    "min": 0,
                    "max": 0,
                    "interval": 90,
                    "enabled": true
                },
                "enabled": true
            },
            "place": [
                "trees/oak/hoakgeneric3",
                "trees/oak/hoakgeneric4",
                "trees/oak/hoakgeneric5",
                "trees/oak/hoakgeneric6",
                "trees/oak/hoakgeneric7",
                "trees/oak/hoakgeneric8",
                "trees/oak/hoakgeneric9",
                "trees/oak/hoakgeneric1",
                "trees/oak/shoakgeneric3",
                "trees/oak/shoakgeneric4",
                "trees/oak/shoakgeneric5",
                "trees/oak/shoakgeneric6",
                "trees/oak/shoakgeneric7",
                "trees/oak/shoakgeneric8",
                "trees/oak/shoakgeneric9",
                "trees/oak/shoakgeneric1",
                "trees/oak/shoakgeneric2"
            ]
        },
        {
            "mode": "PAINT",
            "chance": 0.00975,
            "rotation": {
                "yAxis": {
                    "min": 0,
                    "max": 0,
                    "interval": 90,
                    "enabled": true
                },
                "enabled": true
            },
            "place": [
                "clutter/camp1"
            ]
        },
        {
            "chance": 1,
            "mode": "PAINT",
            "density": 2,
            "rotation": {
                "yAxis": {
                    "min": 0,
                    "max": 0,
                    "interval": 90,
                    "enabled": true
                },
                "enabled": true
            },
            "edit": [
                {
                    "find": [
                        {
                            "block": "minecraft:birch_wood"
                        },
                        {
                            "block": "minecraft:birch_log"
                        }
                    ],
                    "replace": {
                        "palette": [
                            {
                                "block": "minecraft:oak_wood"
                            }
                        ]
                    }
                },
                {
                    "find": [
                        {
                            "block": "minecraft:birch_leaves"
                        }
                    ],
                    "replace": {
                        "palette": [
                            {
                                "block": "minecraft:oak_leaves"
                            }
                        ]
                    }
                }
            ],
            "place": [
                "trees/birch/antioch3",
                "trees/birch/antioch4",
                "trees/birch/antioch5",
                "trees/birch/antioch6",
                "trees/birch/antioch7",
                "trees/birch/antioch8",
                "trees/birch/antioch9",
                "trees/birch/antioch10",
                "trees/birch/antioch11",
                "trees/birch/antioch12",
                "trees/birch/antioch13"
            ],
            "translate": {
                "x": 0,
                "y": -1,
                "z": 0
            }
        },
        {
            "chance": 0.18,
            "rotation": {
                "yAxis": {
                    "min": 0,
                    "max": 0,
                    "interval": 90,
                    "enabled": true
                },
                "enabled": true
            },
            "mode": "PAINT",
            "place": [
                "trees/oak/thoakgeneric1",
                "trees/oak/thoakgeneric2",
                "trees/oak/thoakgeneric3",
                "trees/oak/thoakgeneric4",
                "trees/oak/thoakgeneric8",
                "trees/oak/thoakgeneric10"
            ]
        },
        {
            "chance": 0.001,
            "mode": "PAINT",
            "rotation": {
                "yAxis": {
                    "min": 0,
                    "max": 0,
                    "interval": 90,
                    "enabled": true
                },
                "enabled": true
            },
            "place": [
                "clutter/obelisk1",
                "clutter/obelisk2",
                "clutter/obelisk3",
                "clutter/obelisk4",
                "clutter/obelisk5",
                "clutter/obelisk6",
                "clutter/obelisk7"
            ]
        },
        {
            "chance": 0.001,
            "mode": "PAINT",
            "rotation": {
                "yAxis": {
                    "min": 0,
                    "max": 0,
                    "interval": 90,
                    "enabled": true
                },
                "enabled": true
            },
            "place": [
                "clutter/literalgarbage1",
                "clutter/literalgarbage2",
                "clutter/literalgarbage3",
                "clutter/literalgarbage4"
            ]
        }
    ],
    "decorators": [
        {
            "chance": 0.5,
            "variance": {
                "style": "STATIC"
            },
            "zoom": 0.2,
            "palette": [
                {
                    "chance": 7,
                    "block": "minecraft:grass"
                }
            ]
        },
        {
            "chance": 0.025,
            "variance": {
                "style": "STATIC"
            },
            "zoom": 0.2,
            "palette": [
                {
                    "block": "minecraft:oak_leaves"
                },
                {
                    "block": "minecraft:rose_bush"
                },
                {
                    "block": "minecraft:cobblestone_slab"
                },
                {
                    "block": "minecraft:dandelion"
                },
                {
                    "block": "minecraft:grass"
                },
                {
                    "block": "minecraft:poppy"
                },
                {
                    "block": "minecraft:blue_orchid"
                },
                {
                    "block": "minecraft:allium"
                },
                {
                    "block": "minecraft:azure_bluet"
                },
                {
                    "block": "minecraft:red_tulip"
                },
                {
                    "block": "minecraft:orange_tulip"
                },
                {
                    "block": "minecraft:white_tulip"
                },
                {
                    "block": "minecraft:pink_tulip"
                },
                {
                    "block": "minecraft:oxeye_daisy"
                },
                {
                    "block": "minecraft:cornflower"
                },
                {
                    "block": "minecraft:lily_of_the_valley"
                }
            ]
        },
        {
            "chance": 0.02,
            "variance": {
                "style": "STATIC"
            },
            "zoom": 0.2,
            "palette": [
                {
                    "block": "minecraft:tall_grass"
                },
                {
                    "chance": 3,
                    "block": "minecraft:red_mushroom"
                },
                {
                    "chance": 3,
                    "block": "minecraft:poppy"
                }
            ]
        }
    ]
}