{
    "interpolator": {
        "function": "BILINEAR_STARCAST_9",
        "horizontalScale": 30
    },
    "seed": 9246661,
    "composite": [{
        "style": {
            "style": "NOWHERE",
            "zoom": 1.2,
            "fracture": {
                "style": "IRIS_HALF",
                "zoom": 0.345,
                "multiplier": 18
            }
        },
        "seed": 134056,
        "bezier": true,
        "exponent": 1.125
    }]
}
