{
    "worm": {
        "xStyle": {
            "min": -6,
            "max": 6,
            "generator": {
                "zoom": 0.6,
                "style": "NOWHERE"
            }
        },
        "zStyle": {
            "min": -6,
            "max": 6,
            "generator": {
                "zoom": 0.6,
                "style": "NOWHERE"
            }
        },
        "yStyle": {
            "min": -6,
            "max": 6,
            "generator": {
                "zoom": 3,
                "style": "PERLIN"
            }
        },
        "girth": {
            "max": 3,
            "min": 3
        },
        "maxDistance": 48,
        "maxIterations": 99
    },
    "customBiome": "carving/jungle",
    "nodeThreshold": 40,
    "depthStyle": {
        "generator": {
            "style": "PERLIN"
        },
        "max": 12,
        "min": 7
    },
    "angle": 50,
    "topAngle": 70,
    "ribThickness": 5,
    "baseWidthStyle": {
        "generator": {
            "style": "FLAT"
        },
        "max": 1,
        "min": 1
    }
}